sbatch: error: Unable to open file runbash1.sh
sbatch: error: Unable to open file runbash2.sh
sbatch: error: Unable to open file runbash3.sh
sbatch: error: Unable to open file runbash1.sh
sbatch: error: Unable to open file runbash2.sh
sbatch: error: Unable to open file runbash3.sh
